<svg xmlns="http://www.w3.org/2000/svg" viewBox="0 0 100 100">
  <defs>
    <linearGradient id="g" gradientTransform="rotate(30)">
      <stop offset="10%" stop-color="#e2b007"/>
      <stop offset="40%" stop-color="#f8cc35"/>
      <stop offset="100%" stop-color="#b48c05"/>
    </linearGradient>
  </defs>
  <rect x="2" y="2" rx="4" ry="4" width="96" height="96" fill="url('#g')" stroke-width="4" stroke="#987605"/>
</svg>
